Final Exam: December 10, 9:30am - 12:30pm
…
effects <- select(tidy(lmR1),term, estimate) %>%
  rename(BOUNTY=estimate)
effects$SCOTT = tidy(lmR2)$estimate
effects$PRIVATE = tidy(lmR3)$estimate
effects

## # A tibble: 52 x 4
##    term                           BOUNTY  SCOTT PRIVATE
##    <chr>                           <dbl>  <dbl>   <dbl>
##  1 (Intercept)                  10.4     18.6    12.2  
##  2 log(pricemean)               -5.82    -4.14   -1.76 
##  3 Market_NameBIRMINGHAM/MONTG. -0.785   -0.294  -0.679
##  4 Market_NameBOSTON             1.25     1.30    1.49 
##  5 Market_NameBUFFALO/ROCHESTER  0.00539  0.243   1.32 
##  6 Market_NameCHARLOTTE         -0.116    0.724  -0.292
##  7 Market_NameCHICAGO            0.795    1.42    0.894
##  8 Market_NameCLEVELAND         -1.46    -2.55   -1.68 
##  9 Market_NameDALLAS, TX         0.0893   0.494   0.482
## 10 Market_NameDES MOINES        -1.53    -1.28   -1.38 
## #  with 42 more rows

effects2 <- select(tidy(lmR11),term, estimate) %>%
  rename(BOUNTY=estimate)
effects2$SCOTT = tidy(lmR22)$estimate
effects2$PRIVATE = tidy(lmR33)$estimate
effects2

## # A tibble: 54 x 4
##    term                          BOUNTY  SCOTT PRIVATE
##    <chr>                          <dbl>  <dbl>   <dbl>
##  1 (Intercept)                  11.4    19.4   12.8   
##  2 log(BOUNTY)                  -5.78    2.05   0.402 
##  3 log(SCOTT)                    0.155  -4.09  -0.0436
##  4 log(`PRIVATE LABEL`)          0.552   1.31  -1.85  
##  5 Market_NameBIRMINGHAM/MONTG. -0.876  -0.547 -0.675 
##  6 Market_NameBOSTON             1.17    1.17   1.52  
##  7 Market_NameBUFFALO/ROCHESTER -0.0798  0.105  1.34  
##  8 Market_NameCHARLOTTE         -0.203   0.552 -0.273 
##  9 Market_NameCHICAGO            0.700   1.25   0.919 
## 10 Market_NameCLEVELAND         -1.41   -2.40  -1.67  
## #  with 44 more rows
…
